…
## Examples from `?pivot_wider`

original code is commented right before our translation

``` r
suppressPackageStartupMessages(library(tidyverse, warn.conflicts = FALSE))
library(pivot)

fish_encounters
#> # A tibble: 114 x 3
#>    fish  station  seen
#>    <fct> <fct>   <int>
#>  1 4842  Release     1
#>  2 4842  I80_1       1
#>  3 4842  Lisbon      1
#>  4 4842  Rstr        1
#>  5 4842  Base_TD     1
#>  6 4842  BCE         1
#>  7 4842  BCW         1
#>  8 4842  BCE2        1
#>  9 4842  BCW2        1
#> 10 4842  MAE         1
#> # ... with 104 more rows
…
# Generate column names from multiple variables
us_rent_income
#> # A tibble: 104 x 5
#>    GEOID NAME       variable estimate   moe
#>    <chr> <chr>      <chr>       <dbl> <dbl>
#>  1 01    Alabama    income      24476   136
#>  2 01    Alabama    rent          747     3
#>  3 02    Alaska     income      32940   508
#>  4 02    Alaska     rent         1200    13
#>  5 04    Arizona    income      27517   148
#>  6 04    Arizona    rent          972     4
#>  7 05    Arkansas   income      23789   165
#>  8 05    Arkansas   rent          709     5
#>  9 06    California income      29454   109
#> 10 06    California rent         1358     3
#> # ... with 94 more rows

# us_rent_income %>%
#   pivot_wider(names_from = variable, values_from = c(estimate, moe))
us_rent_income %>%
  group_by(GEOID, NAME) %>%
  summarize(widen("estimate_{variable}" = estimate,
                  "moe_{variable}" = moe), 
            .groups ="drop")
#> # A tibble: 52 x 6
#>    GEOID NAME                 estimate_income estimate_rent moe_income moe_rent
#>    <chr> <chr>                          <dbl>         <dbl>      <dbl>    <dbl>
#>  1 01    Alabama                        24476           747        136        3
#>  2 02    Alaska                         32940          1200        508       13
#>  3 04    Arizona                        27517           972        148        4
#>  4 05    Arkansas                       23789           709        165        5
#>  5 06    California                     29454          1358        109        3
#>  6 08    Colorado                       32401          1125        109        5
#>  7 09    Connecticut                    35326          1123        195        5
#>  8 10    Delaware                       31560          1076        247       10
#>  9 11    District of Columbia           43198          1424        681       17
#> 10 12    Florida                        25952          1077         70        3
#> # ... with 42 more rows

# When there are multiple `names_from` or `values_from`, you can use
# use `names_sep` or `names_glue` to control the output variable names
# us_rent_income %>%
#   pivot_wider(
#     names_from = variable,
#     names_sep = ".",
#     values_from = c(estimate, moe)
#   )
us_rent_income %>%
  group_by(GEOID, NAME) %>%
  summarize(widen("estimate.{variable}" = estimate,
                  "moe.{variable}" = moe), 
            .groups ="drop")
#> # A tibble: 52 x 6
#>    GEOID NAME                 estimate.income estimate.rent moe.income moe.rent
#>    <chr> <chr>                          <dbl>         <dbl>      <dbl>    <dbl>
#>  1 01    Alabama                        24476           747        136        3
#>  2 02    Alaska                         32940          1200        508       13
#>  3 04    Arizona                        27517           972        148        4
#>  4 05    Arkansas                       23789           709        165        5
#>  5 06    California                     29454          1358        109        3
#>  6 08    Colorado                       32401          1125        109        5
#>  7 09    Connecticut                    35326          1123        195        5
#>  8 10    Delaware                       31560          1076        247       10
#>  9 11    District of Columbia           43198          1424        681       17
#> 10 12    Florida                        25952          1077         70        3
#> # ... with 42 more rows

# us_rent_income %>%
#   pivot_wider(
#     names_from = variable,
#     names_glue = "{variable}_{.value}",
#     values_from = c(estimate, moe)
#   )
us_rent_income %>%
  group_by(GEOID, NAME) %>%
  summarize(widen("{variable}_estimate" = estimate,
                  "{variable}_moe" = moe), 
            .groups ="drop")
#> # A tibble: 52 x 6
#>    GEOID NAME                 income_estimate rent_estimate income_moe rent_moe
#>    <chr> <chr>                          <dbl>         <dbl>      <dbl>    <dbl>
#>  1 01    Alabama                        24476           747        136        3
#>  2 02    Alaska                         32940          1200        508       13
#>  3 04    Arizona                        27517           972        148        4
#>  4 05    Arkansas                       23789           709        165        5
#>  5 06    California                     29454          1358        109        3
#>  6 08    Colorado                       32401          1125        109        5
#>  7 09    Connecticut                    35326          1123        195        5
#>  8 10    Delaware                       31560          1076        247       10
#>  9 11    District of Columbia           43198          1424        681       17
#> 10 12    Florida                        25952          1077         70        3
#> # ... with 42 more rows

# Can perform aggregation with values_fn
warpbreaks <- as_tibble(warpbreaks[c("wool", "tension", "breaks")])
warpbreaks
#> # A tibble: 54 x 3
#>    wool  tension breaks
#>    <fct> <fct>    <dbl>
#>  1 A     L           26
#>  2 A     L           30
#>  3 A     L           54
#>  4 A     L           25
#>  5 A     L           70
#>  6 A     L           52
#>  7 A     L           51
#>  8 A     L           26
#>  9 A     L           67
#> 10 A     M           18
#> # ... with 44 more rows
…
# relig_income %>%
#   pivot_longer(-religion, names_to = "income", values_to = "count")
relig_income %>%
  group_by(religion) %>%
  summarize(
    lengthen(c("income", "count") := ".*"),
    .groups = "drop")
#> # A tibble: 180 x 3
#>    religion income             count
#>    <chr>    <chr>              <dbl>
#>  1 Agnostic <$10k                 27
#>  2 Agnostic $10-20k               34
#>  3 Agnostic $20-30k               60
#>  4 Agnostic $30-40k               81
#>  5 Agnostic $40-50k               76
#>  6 Agnostic $50-75k              137
#>  7 Agnostic $75-100k             122
#>  8 Agnostic $100-150k            109
#>  9 Agnostic >150k                 84
#> 10 Agnostic Don't know/refused    96
#> # ... with 170 more rows

# Slightly more complex case where columns have common prefix,
# and missing missings are structural so should be dropped.
billboard
#> # A tibble: 317 x 79
#>    artist track date.entered   wk1   wk2   wk3   wk4   wk5   wk6   wk7   wk8
#>    <chr>  <chr> <date>       <dbl> <dbl> <dbl> <dbl> <dbl> <dbl> <dbl> <dbl>
#>  1 2 Pac  Baby~ 2000-02-26      87    82    72    77    87    94    99    NA
#>  2 2Ge+h~ The ~ 2000-09-02      91    87    92    NA    NA    NA    NA    NA
#>  3 3 Doo~ Kryp~ 2000-04-08      81    70    68    67    66    57    54    53
#>  4 3 Doo~ Loser 2000-10-21      76    76    72    69    67    65    55    59
#>  5 504 B~ Wobb~ 2000-04-15      57    34    25    17    17    31    36    49
#>  6 98^0   Give~ 2000-08-19      51    39    34    26    26    19     2     2
#>  7 A*Tee~ Danc~ 2000-07-08      97    97    96    95   100    NA    NA    NA
#>  8 Aaliy~ I Do~ 2000-01-29      84    62    51    41    38    35    35    38
#>  9 Aaliy~ Try ~ 2000-03-18      59    53    38    28    21    18    16    14
#> 10 Adams~ Open~ 2000-08-26      76    76    74    69    68    67    61    58
#> # ... with 307 more rows, and 68 more variables: wk9 <dbl>, wk10 <dbl>,
#> #   wk11 <dbl>, wk12 <dbl>, wk13 <dbl>, wk14 <dbl>, wk15 <dbl>, wk16 <dbl>,
#> #   wk17 <dbl>, wk18 <dbl>, wk19 <dbl>, wk20 <dbl>, wk21 <dbl>, wk22 <dbl>,
#> #   wk23 <dbl>, wk24 <dbl>, wk25 <dbl>, wk26 <dbl>, wk27 <dbl>, wk28 <dbl>,
#> #   wk29 <dbl>, wk30 <dbl>, wk31 <dbl>, wk32 <dbl>, wk33 <dbl>, wk34 <dbl>,
#> #   wk35 <dbl>, wk36 <dbl>, wk37 <dbl>, wk38 <dbl>, wk39 <dbl>, wk40 <dbl>,
#> #   wk41 <dbl>, wk42 <dbl>, wk43 <dbl>, wk44 <dbl>, wk45 <dbl>, wk46 <dbl>,
#> #   wk47 <dbl>, wk48 <dbl>, wk49 <dbl>, wk50 <dbl>, wk51 <dbl>, wk52 <dbl>,
#> #   wk53 <dbl>, wk54 <dbl>, wk55 <dbl>, wk56 <dbl>, wk57 <dbl>, wk58 <dbl>,
…
# billboard %>%
#  pivot_longer(
#    cols = starts_with("wk"),
#    names_to = "week",
#    names_prefix = "wk",
#    values_to = "rank",
#    values_drop_na = TRUE
#  )
billboard %>%
  group_by(artist, track, date.entered) %>%
  summarize(
    lengthen(c("week", "rank") := "^wk(.*?)$", drop_na = TRUE),
    .groups = "drop")
#> # A tibble: 5,307 x 5
#>    artist  track                   date.entered week   rank
#>    <chr>   <chr>                   <date>       <chr> <dbl>
#>  1 2 Pac   Baby Don't Cry (Keep... 2000-02-26   1        87
#>  2 2 Pac   Baby Don't Cry (Keep... 2000-02-26   2        82
#>  3 2 Pac   Baby Don't Cry (Keep... 2000-02-26   3        72
#>  4 2 Pac   Baby Don't Cry (Keep... 2000-02-26   4        77
#>  5 2 Pac   Baby Don't Cry (Keep... 2000-02-26   5        87
#>  6 2 Pac   Baby Don't Cry (Keep... 2000-02-26   6        94
#>  7 2 Pac   Baby Don't Cry (Keep... 2000-02-26   7        99
#>  8 2Ge+her The Hardest Part Of ... 2000-09-02   1        91
#>  9 2Ge+her The Hardest Part Of ... 2000-09-02   2        87
#> 10 2Ge+her The Hardest Part Of ... 2000-09-02   3        92
#> # ... with 5,297 more rows
# Multiple variables stored in column names
# who %>% pivot_longer(
#   cols = new_sp_m014:newrel_f65,
#   names_to = c("diagnosis", "gender", "age"),
#   names_pattern = "new_?(.*)_(.)(.*)",
#   values_to = "count"
# )

who %>%
  group_by(country, iso2, iso3, year) %>%
  summarize(lengthen(
    c("diagnosis", "gender", "age", "count") := "^new_?(.*)_(.)(.*)"
  )) 
#> `summarise()` regrouping output by 'country', 'iso2', 'iso3', 'year' (override with `.groups` argument)
#> # A tibble: 405,440 x 8
#> # Groups:   country, iso2, iso3, year [7,240]
#>    country     iso2  iso3   year diagnosis gender age   count
#>    <chr>       <chr> <chr> <int> <chr>     <chr>  <chr> <int>
#>  1 Afghanistan AF    AFG    1980 sp        m      014      NA
#>  2 Afghanistan AF    AFG    1980 sp        m      1524     NA
#>  3 Afghanistan AF    AFG    1980 sp        m      2534     NA
#>  4 Afghanistan AF    AFG    1980 sp        m      3544     NA
#>  5 Afghanistan AF    AFG    1980 sp        m      4554     NA
#>  6 Afghanistan AF    AFG    1980 sp        m      5564     NA
#>  7 Afghanistan AF    AFG    1980 sp        m      65       NA
#>  8 Afghanistan AF    AFG    1980 sp        f      014      NA
#>  9 Afghanistan AF    AFG    1980 sp        f      1524     NA
#> 10 Afghanistan AF    AFG    1980 sp        f      2534     NA
#> # ... with 405,430 more rows
…
anscombe %>%
  as_tibble() %>%
  summarize(lengthen(
    c("set", "_val_") := "(?<_val_>.)(.)"
  ))
#> # A tibble: 44 x 3
#>    set       x     y
#>    <chr> <dbl> <dbl>
#>  1 1        10  8.04
#>  2 2        10  9.14
#>  3 3        10  7.46
#>  4 4         8  6.58
#>  5 1         8  6.95
#>  6 2         8  8.14
#>  7 3         8  6.77
#>  8 4         8  5.76
#>  9 1        13  7.58
#> 10 2        13  8.74
#> # ... with 34 more rows
```
